[
    {
        "sentence": "Microsoft accquired Bing for USD 10 Billion for 60% of stakes on 10th March, 2014.",
        "output": [
            {
                "type": "money",
                "text": "10 Billion",
                "startCh": 33,
                "endCh": 43,
                "number": 1000000000.0,
                "currency": "USD",
                "date": null,
                "time": null
            },
            {
                "type": "date",
                "text": "on 10th March, 2014",
                "startCh": 62,
                "endCh": 81,
                "number": null,
                "currency": null,
                "date": "10-03-2014",
                "time": null
            },
            {
                "type": "percentage",
                "text": "60%",
                "startCh": 48,
                "endCh": 51,
                "number": 0.6,
                "currency": null,
                "date": null,
                "time": null
            }
        ]
    }
]