[
    {
        "sentence": "Transat last year approved a $720-million takeover by Air Canada.",
        "output": [
            {
                "type": "money",
                "text": "$720-million",
                "startCh": 29,
                "endCh": 41,
                "number": 720000000.0,
                "currency": "$",
                "date": null,
                "time": null
            }
        ]
    },
    {
        "sentence": "Transat last year approved a $720 million takeover by Air Canada.",
        "output": [
            {
                "type": "money",
                "text": "$720 million",
                "startCh": 29,
                "endCh": 41,
                "number": 720000000.0,
                "currency": "$",
                "date": null,
                "time": null
            }
        ]
    },
    {
        "sentence": "Transat last year approved a $720 Million takeover by Air Canada.",
        "output": [
            {
                "type": "money",
                "text": "$720 Million",
                "startCh": 29,
                "endCh": 41,
                "number": 720000000.0,
                "currency": "$",
                "date": null,
                "time": null
            }
        ]
    },
    {
        "sentence": "Transat last year approved a $720M takeover by Air Canada.",
        "output": [
            {
                "type": "money",
                "text": "$720M",
                "startCh": 29,
                "endCh": 34,
                "number": 720000000.0,
                "currency": "$",
                "date": null,
                "time": null
            }
        ]
    },
    {
        "sentence": "has agreed terms for the $4.7 billion acquisition of",
        "output": [
            {
                "type": "money",
                "text": "$4.7 billion",
                "startCh": 25,
                "endCh": 37,
                "number": 470000000.0,
                "currency": "$",
                "date": null,
                "time": null
            }
        ]
    },
    {
        "sentence": "Sirius Minerals shareholders vote in favour of \u00a3405m takeover by Anglo American",
        "output": [
            {
                "type": "money",
                "text": "\u00a3405m",
                "startCh": 47,
                "endCh": 52,
                "number": 405000000.0,
                "currency": "\u00a3",
                "date": null,
                "time": null
            }
        ]
    },
    {
        "sentence": "Haynes Publishing rockets as it agrees \u00a3114.5mln takeover by Infopro Digital",
        "output": [
            {
                "type": "money",
                "text": "\u00a3114.5mln",
                "startCh": 39,
                "endCh": 48,
                "number": 114500000.0,
                "currency": "\u00a3",
                "date": null,
                "time": null
            }
        ]
    },
    {
        "sentence": "Shareholders in the 60-year old company will receive 700p in cash for each share they hold",
        "output": []
    },
    {
        "sentence": "Cineplex shareholders approve $2.8-billion takeover bid by U.K.-based Cineworld.",
        "output": [
            {
                "type": "money",
                "text": "$2.8-billion",
                "startCh": 30,
                "endCh": 42,
                "number": 280000000.0,
                "currency": "$",
                "date": null,
                "time": null
            }
        ]
    },
    {
        "sentence": "Tiffany shareholders approve $16.2 bn bid by France's LVMH.",
        "output": [
            {
                "type": "money",
                "text": "$16.2 bn",
                "startCh": 29,
                "endCh": 37,
                "number": 1620000000.0,
                "currency": "$",
                "date": null,
                "time": null
            }
        ]
    },
    {
        "sentence": "Tiffany shareholders approve USD 16.2-bn bid by France's LVMH.",
        "output": [
            {
                "type": "money",
                "text": "16.2-bn",
                "startCh": 33,
                "endCh": 40,
                "number": 1620000000.0,
                "currency": "USD",
                "date": null,
                "time": null
            }
        ]
    },
    {
        "sentence": "Tiffany shareholders approve $16.2-bn bid by France's LVMH.",
        "output": [
            {
                "type": "money",
                "text": "$16.2-bn",
                "startCh": 29,
                "endCh": 37,
                "number": 1620000000.0,
                "currency": "$",
                "date": null,
                "time": null
            }
        ]
    },
    {
        "sentence": "NZ's Metlifecare backs $996 million buyout offer from Swedish fund EQT.",
        "output": [
            {
                "type": "money",
                "text": "$996 million",
                "startCh": 23,
                "endCh": 35,
                "number": 996000000.0,
                "currency": "$",
                "date": null,
                "time": null
            }
        ]
    },
    {
        "sentence": "NZ's Metlifecare backs $1.43b buyout offer.",
        "output": [
            {
                "type": "money",
                "text": "$1.43b",
                "startCh": 23,
                "endCh": 29,
                "number": 143000000.0,
                "currency": "$",
                "date": null,
                "time": null
            }
        ]
    },
    {
        "sentence": "NZ's Metlifecare backs $996 Million buyout offer from Swedish fund EQT.",
        "output": [
            {
                "type": "money",
                "text": "$996 Million",
                "startCh": 23,
                "endCh": 35,
                "number": 996000000.0,
                "currency": "$",
                "date": null,
                "time": null
            }
        ]
    },
    {
        "sentence": "Eland shareholders approve \u00a3382m takeover by Seplat.",
        "output": [
            {
                "type": "money",
                "text": "\u00a3382m",
                "startCh": 27,
                "endCh": 32,
                "number": 382000000.0,
                "currency": "\u00a3",
                "date": null,
                "time": null
            }
        ]
    },
    {
        "sentence": "Eland shareholders approve \u00a3382 million takeover by Seplat.",
        "output": [
            {
                "type": "money",
                "text": "\u00a3382 million",
                "startCh": 27,
                "endCh": 39,
                "number": 382000000.0,
                "currency": "\u00a3",
                "date": null,
                "time": null
            }
        ]
    },
    {
        "sentence": "Brookings School Board OKs $10.6 million Mickelson bid.",
        "output": [
            {
                "type": "money",
                "text": "$10.6 million",
                "startCh": 27,
                "endCh": 40,
                "number": 10600000.0,
                "currency": "$",
                "date": null,
                "time": null
            }
        ]
    },
    {
        "sentence": "Shareholders greenlight $17.3B Eldorado acquisition of Caesars.",
        "output": [
            {
                "type": "money",
                "text": "$17.3B",
                "startCh": 24,
                "endCh": 30,
                "number": 1730000000.0,
                "currency": "$",
                "date": null,
                "time": null
            }
        ]
    },
    {
        "sentence": "Tech Data agrees USD 5.4 bln takeover by Apollo.",
        "output": [
            {
                "type": "money",
                "text": "5.4 bln",
                "startCh": 21,
                "endCh": 28,
                "number": 540000000.0,
                "currency": "USD",
                "date": null,
                "time": null
            }
        ]
    },
    {
        "sentence": "Botox maker Allergan plc (NYSE: AGN), which has agreed to be bought by AbbVie Inc (NYSE: ABBV) for $63 billion, reported Tuesday ahead of the open with higher ",
        "output": [
            {
                "type": "money",
                "text": "$63 billion",
                "startCh": 99,
                "endCh": 110,
                "number": 6300000000.0,
                "currency": "$",
                "date": null,
                "time": null
            }
        ]
    },
    {
        "sentence": "Fitbit agreed to be acquired by Google for $7.35 per share.",
        "output": [
            {
                "type": "money",
                "text": "$7.35 per",
                "startCh": 43,
                "endCh": 52,
                "number": 7.35,
                "currency": "$",
                "date": null,
                "time": null
            }
        ]
    },
    {
        "sentence": "QMS Media board backs $420m Quadrant bid",
        "output": [
            {
                "type": "money",
                "text": "$420m",
                "startCh": 22,
                "endCh": 27,
                "number": 420000000.0,
                "currency": "$",
                "date": null,
                "time": null
            }
        ]
    },
    {
        "sentence": "QMS Media agrees to $421m buyout offer.",
        "output": [
            {
                "type": "money",
                "text": "$421m",
                "startCh": 20,
                "endCh": 25,
                "number": 421000000.0,
                "currency": "$",
                "date": null,
                "time": null
            }
        ]
    },
    {
        "sentence": "Broadcaster CME agrees to be acquired by Czech firm PPF in $2.1 bln deal",
        "output": [
            {
                "type": "money",
                "text": "$2.1 bln",
                "startCh": 59,
                "endCh": 67,
                "number": 210000000.0,
                "currency": "$",
                "date": null,
                "time": null
            }
        ]
    },
    {
        "sentence": "Aggregated Micro Power Agrees GBP63 Million Takeover By Asterion | Financial News.(success)",
        "output": [
            {
                "type": "money",
                "text": "GBP63",
                "startCh": 30,
                "endCh": 35,
                "number": 6300000000.0,
                "currency": "GBP",
                "date": null,
                "time": null
            }
        ]
    },
    {
        "sentence": "Caesars Entertainment (CZR), which has agreed to be purchased by Eldorado Resorts (ERI), trades at $5.56, up 10% from its Wednesday low of $3.22.",
        "output": [
            {
                "type": "money",
                "text": "$5.56, up",
                "startCh": 99,
                "endCh": 108,
                "number": 5.56,
                "currency": "$",
                "date": null,
                "time": null
            }
        ]
    }
]